<?xml version="1.0" encoding="UTF-8"?>
<svg width="60mm" height="60mm" version="1.1" viewBox="0 0 60 60" xmlns="http://www.w3.org/2000/svg" xmlns:xlink="http://www.w3.org/1999/xlink">
 <defs>
  <clipPath id="clipPath18-0">
   <path d="m0 792h612v-792h-612z"/>
  </clipPath>
 </defs>
 <g transform="translate(0,-237)">
  <g transform="matrix(.36029 0 0 -.36029 -80.249 449.92)" clip-path="url(#clipPath18-0)" fill="#7800ff">
   <g transform="translate(378.2,507.5)" fill="#7800ff" image-rendering="auto">
    <path d="m0 0c0-39.764-32.235-72-72-72-39.764 0-72 32.236-72 72s32.236 72 72 72c39.765 0 72-32.236 72-72z" fill="#7800ff"/>
   </g>
  </g>
  <g transform="matrix(.36029 0 0 -.36029 -80.249 449.92)" clip-path="url(#clipPath18-0)" fill="none" stroke="#fff" stroke-width="12.934">
   <g transform="translate(378.2,507.5)" fill="none" image-rendering="auto" stroke="#fff" stroke-width="12.934">
    <path d="m0 0c0-39.764-32.235-72-72-72-39.764 0-72 32.236-72 72s32.236 72 72 72c39.765 0 72-32.236 72-72z" fill="none" stroke="#fff" stroke-width="12.934"/>
   </g>
  </g>
  <g transform="matrix(1.1581 0 0 1.1581 -5.7302 -50.05)" fill="#fff" aria-label="𓅣">
   <path d="m46.158 275.45c-0.52653-0.0144-1.03-0.0452-1.5726-0.0674l1.1831 1.295c-0.16545 1.2694-1.7721 1.7758-2.67 1.5188-0.97035-0.88955-2.549-2.3263-2.8373-2.5033-2.0532 0.37145-3.2674 0.45827-6.2918 0.10509 0.9503 1.4546 1.5424 2.452 1.8066 3.3255-0.12561 1.6705-0.29435 5.1581 0.06396 7.8661 0.60205 0.17743 1.889 0.41012 2.7007 0.95352l-0.62231 0.59201-0.72113-0.10761-0.15988 0.1279-2.1087-0.49452c-0.0022 5e-3 -0.8656 0.15763-2.5497 0.39212-0.21317-0.17053-0.3997-0.2558-0.3997-0.2558l-0.47964 0.2558-0.46365-0.1758s-0.18653 0.0586-0.33575 0.17586l-0.46364-0.24233 0.49158-0.86079c0.60764-0.17306 2.5327-0.55224 3.7688-0.85582 0.0471-2.3288 3.68e-4 -4.9514-0.36772-6.9867-0.05329-0.28779-0.42635-0.83671-1.1192-1.6468-0.47964-0.55425-1.0401-1.3657-1.5197-1.9093 0 0 0.46278 2.2346 0.4485 2.213-2.3246 4.7068-4.3626 7.2285-5.0202 8.7774 0.80398 0.33896 2.3093 0.67036 2.4781 1.1032l-0.60242 0.4534-0.35679-0.10272-0.26674 0.10262-1.9539-0.36601-2.7634 0.32072-0.55958-0.22383-0.50993 0.20438-0.49731-0.23638-0.71861 0.13967 0.44261-0.83557c0.87494-0.48926 2.2046-0.33007 3.9238-0.85494 0.81657-1.1918 3.5682-5.6971 4.7257-8.3062-0.83603-2.0218-1.9979-3.4359-2.9898-5.324-1.3961-1.3368-4.8394-4.3009-4.5086-5.7876 0-0.67149 0.35174-1.3963 1.0552-2.1744 0.37305-0.40503 1.0339-0.99126 1.9825-1.7587 1.2442-0.86657 1.1499-1.3051 0.94383-1.6268-1.6376 0.32747-2.0315 0.11583-2.4947-0.0359l-6.667 2.1744-0.29879 0.12651 0.18687-0.47784c1.7056-1.0347 3.4749-1.9121 5.6346-3.4051 0.3874-0.79073 1.2272-1.1776 1.9596-1.3753 2.1616-0.61759 3.4253 0.43781 4.1271 0.82243 3.3582 1.7541 7.1659 1.7596 13.556 2.1993 0 0 0.01946 0.455 0.01599 0.44767-3.5056 0.35224-5.7828 0.55334-10.163-0.29399 0.92469 0.42558 5.8307 1.4568 9.2777 1.8648 0 0 0.0023 0.22316 0.01654 0.33739-6.7103 0.97338-10.008-0.96408-12.905-2.4871 0.27386 2.2533-3.0506 4.1319-3.2195 4.491 0.21631 0.63353 0.72239 0.0991 1.0535-0.15484 1.5514-1.116 3.2136-1.1876 4.8444-0.71946 3.8835 0.96612 6.8119 3.5846 9.1611 5.7397 2.8263 2.486 3.7495 2.9459 6.1714 3.4854-0.06528 0.64941-0.48416 0.8726-0.84162 1.0425zm0.32086-0.75254c-1.436-0.17663-3.1266-0.8367-5.2989-2.9281-2.4225-2.3808-5.4124-4.6696-8.2818-5.7397-2.1985-0.96149-4.5399-1.027-6.0435 0.38371-0.70498 0.68762-1.6604 0.29202-1.6182-0.41568 1.1982-1.2639 3.8213-2.4916 3.3289-4.7004-0.15988-0.0533-0.36239-0.19716-0.60754-0.43168l0.33575-0.17587c5.316 2.7664 7.048 3.5263 11.901 3.1696-4.5354-0.67771-7.7445-1.2028-11.756-3.6185l0.15916-0.22193c0.7461 0.35174 1.9046 0.96844 3.4522 1.3473 2.9405 0.50644 5.5361 0.84993 8.4304 0.59736-3.481-0.26612-7.0701-0.44134-10.236-1.5777-0.57557-0.20251-1.0339-0.41036-1.375-0.62353-0.58738-0.36521-0.92848-0.68918-2.1744-0.91131-0.74968-0.0497-2.643 0.23599-3.0032 0.96432-1.1324 2.0228 2.8463 1.8659 3.3461 1.3208 0.22235 0.77963 0.41763 1.1386-0.39536 1.9967-3.5647 2.9199-4.9717 3.8891-1.1146 7.5972 1.5158 1.7752 3.5838 2.8622 5.446 3.8868 1.0157 1.425 3.2952 3.7844 3.5712 4.8107 0.40811 2.6414 0.36772 4.7651 0.36772 7.3523-0.14569 0.21154-4.2717 0.69349-4.0164 1.1449 0.2324 0.0206 0.54697 0.0564 0.54697 0.0564l0.49563-0.23982 0.51162 0.23982 2.4781-0.33575s1.9707 0.45514 1.9707 0.45776l0.24573-0.15638s0.74192 0.27883 0.80617 0.0968c-0.7518-0.3045-1.6077-0.55271-2.4344-0.74817-0.33942-2.1187-0.31349-4.9794-0.1725-8.1556-0.31471-1.3355-2.1919-3.647-2.4781-4.2848l0.34416-0.20196s0.38743 0.63711 0.39641 0.64217c2.8543 0.57094 4.6672 0.2493 6.8377-9e-3 0.94896 0.483 2.3376 2.3485 3.0537 2.5741 0.66165 0.011 1.784-0.30215 1.8066-1.0392-0.45567-0.58272-1.1407-1.2647-1.4229-1.5508-6.0173-0.638-10.46-1.5344-14.743-3.7951-1.8193-1.0911-2.7688-2.3686-1.333-5.112l0.6218-0.0661c-1.3753 2.3694-0.95324 3.3609 0.58498 4.5285 5.4705 3.0018 10.672 3.5318 16.156 4.2106 1.027 3e-3 0.89927 0.28616 1.3098-0.33876zm-22.745-13.238c-0.04263-0.0213-0.24182-0.13545-0.31643-0.21004l-3.8049 1.5933zm-0.50828-0.56177c-0.07461-0.0853-0.12551-0.26921-0.13617-0.38646l-3.5088 2.089zm8.2978 17.251c-0.21176-1.109-0.50097-2.7267-0.75143-3.0857-0.65564-0.56052-1.8643-0.95411-2.7979-1.6148 0.49403 0.90346 2.3207 3.6789 2.702 4.8923-1.382 3.1225-3.6244 6.7525-4.6685 8.4896-0.43346 0.60173-4.251 0.55056-4.026 1.0271l0.39993 0.13357 0.47964-0.1439 0.63952 0.20785 2.7459-0.33304 1.8891 0.37021 0.29694-0.096c0.29857 0.0894 0.36945 0.14199 0.44238 8e-3 -0.82984-0.41522-1.5098-0.53147-2.493-0.90751 1.4161-2.7723 3.8386-6.1257 5.1414-8.9482zm-7.3596-17.839c0.17603-0.48059 0.7803-0.34847 0.86335 0.0296-0.46358 0.28516-1.0297 0.35983-0.86335-0.0296z" fill="#fff" stroke-width=".81858"/>
  </g>
  <flowRoot transform="matrix(.26458 0 0 .26458 0 237)" fill="#000000" font-family="sans-serif" font-size="40px" letter-spacing="0px" stroke-width="1px" word-spacing="0px" style="line-height:125%" xml:space="preserve"><flowRegion><rect x="-71.75" y="150.52" width="79.5" height="43.25"/></flowRegion><flowPara>LURO</flowPara></flowRoot>
  <path id="path22-0" d="m15.99 281.14c-7.7255-7.7453-7.7097-20.287 0.03583-28.013 7.7453-7.7255 20.287-7.7095 28.013 0.0358 7.7255 7.7453 7.7095 20.287-0.03583 28.013-7.7455 7.7257-20.287 7.7095-28.013-0.0358z" fill="none" image-rendering="auto"/>
  <text x="-1.5213542" y="-4.299479" fill="#000000" font-family="'F5.6'" font-size="3.5278px" letter-spacing="-.34131px" stroke-width=".12393px" word-spacing="0px" style="font-feature-settings:normal;font-variant-caps:normal;font-variant-ligatures:normal;font-variant-numeric:normal;line-height:125%" xml:space="preserve"><textPath font-family="'F5.6'" font-size="3.175px" letter-spacing="-.34131px" style="font-feature-settings:normal;font-variant-caps:normal;font-variant-ligatures:normal;font-variant-numeric:normal" xlink:href="#path22-0"><tspan dx="0 -0.19 -0.43000001 -0.27000001 0.17 0.039999999 -0.38 -0.38" fill="#ffffff" font-family="'F5.6'" font-size="3.175px" letter-spacing="-.34131px" stroke-width=".12393px" style="font-feature-settings:normal;font-variant-caps:normal;font-variant-ligatures:normal;font-variant-numeric:normal">LURK.ORG</tspan></textPath></text>
 </g>
</svg>
